Student GPA
…
This is our second tidied dataset.

# A tibble: 625 × 10
      id race            gender firstgen total_sleep university cum_gpa term_gpa
   <dbl> <fct>           <fct>  <fct>          <dbl> <fct>        <dbl>    <dbl>
 1   185 Not Underrepre… Female Not Fir…        432. Carnegie …    3        3.38
 2   158 Underrepresent… Female Not Fir…        392. Carnegie …    3.66     2.6 
 3   209 Not Underrepre… Female Not Fir…        344. Carnegie …    3.57     3.07
 4   102 Underrepresent… Female First-G…        393. Carnegie …    3.61     3.56
 5   174 Not Underrepre… Female Not Fir…        423. Carnegie …    3.21     4   
 6   184 Not Underrepre… Female Not Fir…        397. Carnegie …    3.2      3.36
 7   255 Not Underrepre… Female Not Fir…        349. Carnegie …    3.4      3.19
 8   265 Not Underrepre… Female Not Fir…        422. Carnegie …    3.86     3.28
 9   343 Not Underrepre… Male   Not Fir…        454. Carnegie …    3.79     3.5 
10   137 Not Underrepre… Female Not Fir…        309. Carnegie …    3.53     2.55
# ℹ 615 more rows
# ℹ 2 more variables: midpoint_sleep <dbl>, naptime <dbl>
…
